^C:\USERS\PEAR\SOURCE\REPOS\PROJECT\PROJECT\DEBUG\PROJECT.OBJ
C:\USERS\PEAR\SOURCE\REPOS\PROJECT\DEBUG\PROJECT.ILK
C:\USERS\PEAR\SOURCE\REPOS\PROJECT\DEBUG\PROJECT.EXE
C:\USERS\PEAR\SOURCE\REPOS\PROJECT\DEBUG\PROJECT.PDB
